{
  "kind": "collectionType",
  "collectionName": "pages",
  "info": {
    "name": "page"
  },
  "options": {
    "increments": true,
    "timestamps": true
  },
  "attributes": {
    "title": {
      "type": "string"
    },
    "slug": {
      "type": "uid",
      "targetField": "title"
    },
    "page_contents": {
      "type": "dynamiczone",
      "components": [
        "page-content.text-area"
      ]
    }
  }
}
