{
  "collectionName": "components_page_content_text_areas",
  "info": {
    "name": "text_area",
    "icon": "align-left"
  },
  "options": {},
  "attributes": {
    "text": {
      "type": "richtext"
    }
  }
}
